Tidymodels Bonsai Test
…
library(bonsai)
df <- palmerpenguins::penguins %>% drop_na()

options(tidymodels.dark = T)

split <- initial_split(df, prop = 0.8, strata = sex)

rec <- recipe(sex ~., data = training(split)) %>%
  step_rm(year) %>% 
  step_dummy(species, island, one_hot = T)

rec %>% prep() %>% bake(new_data = NULL)

# A tibble: 266 × 11
   bill_…¹ bill_…² flipp…³ body_…⁴ sex   speci…⁵ speci…⁶ speci…⁷ islan…⁸ islan…⁹
     <dbl>   <dbl>   <int>   <int> <fct>   <dbl>   <dbl>   <dbl>   <dbl>   <dbl>
 1    39.5    17.4     186    3800 fema…       1       0       0       0       0
 2    36.7    19.3     193    3450 fema…       1       0       0       0       0
 3    36.6    17.8     185    3700 fema…       1       0       0       0       0
 4    38.7    19       195    3450 fema…       1       0       0       0       0
 5    34.4    18.4     184    3325 fema…       1       0       0       0       0
 6    35.9    19.2     189    3800 fema…       1       0       0       1       0
 7    35.3    18.9     187    3800 fema…       1       0       0       1       0
 8    40.5    17.9     187    3200 fema…       1       0       0       1       0
 9    39.5    16.7     178    3250 fema…       1       0       0       0       1
10    39.5    17.8     188    3300 fema…       1       0       0       0       1
# … with 256 more rows, 1 more variable: island_Torgersen <dbl>, and
#   abbreviated variable names ¹​bill_length_mm, ²​bill_depth_mm,
#   ³​flipper_length_mm, ⁴​body_mass_g, ⁵​species_Adelie, ⁶​species_Chinstrap,
#   ⁷​species_Gentoo, ⁸​island_Biscoe, ⁹​island_Dream
…
